{
  "project_info": {
    "project_number": "424104180383",
    "firebase_url": "https://homecare-mobile.firebaseio.com",
    "project_id": "homecare-mobile",
    "storage_bucket": "homecare-mobile.appspot.com"
  },
  "client": [
    {
      "client_info": {
        "mobilesdk_app_id": "1:424104180383:android:dfd54519d18b854a",
        "android_client_info": {
          "package_name": "com.homecaremobile"
        }
      },
      "oauth_client": [
        {
          "client_id": "424104180383-fpd287out9cisamjv616doh6udlcv8in.apps.googleusercontent.com",
          "client_type": 1,
          "android_info": {
            "package_name": "com.homecaremobile",
            "certificate_hash": "49b5548cab1a34e7b28f589787fb31ebd2c20232"
          }
        },
        {
          "client_id": "424104180383-vrob8er161u8io5eagulvrbjhjsqadt5.apps.googleusercontent.com",
          "client_type": 3
        }
      ],
      "api_key": [
        {
          "current_key": "AIzaSyCnSTdVub-TPcDDJGHc5Y7nM872eT3zXZc"
        }
      ],
      "services": {
        "analytics_service": {
          "status": 1
        },
        "appinvite_service": {
          "status": 2,
          "other_platform_oauth_client": [
            {
              "client_id": "424104180383-vrob8er161u8io5eagulvrbjhjsqadt5.apps.googleusercontent.com",
              "client_type": 3
            },
            {
              "client_id": "424104180383-ggvv9p6hb132k18lc2du3mgg60gn6e1f.apps.googleusercontent.com",
              "client_type": 2,
              "ios_info": {
                "bundle_id": "com.homecaremobile"
              }
            }
          ]
        },
        "ads_service": {
          "status": 2
        }
      }
    },
    {
      "client_info": {
        "mobilesdk_app_id": "1:424104180383:android:ce73e3fb2e5e182a",
        "android_client_info": {
          "package_name": "com.mmbhomecare"
        }
      },
      "oauth_client": [
        {
          "client_id": "424104180383-vrob8er161u8io5eagulvrbjhjsqadt5.apps.googleusercontent.com",
          "client_type": 3
        }
      ],
      "api_key": [
        {
          "current_key": "AIzaSyCnSTdVub-TPcDDJGHc5Y7nM872eT3zXZc"
        }
      ],
      "services": {
        "analytics_service": {
          "status": 1
        },
        "appinvite_service": {
          "status": 1,
          "other_platform_oauth_client": []
        },
        "ads_service": {
          "status": 2
        }
      }
    }
  ],
  "configuration_version": "1"
}